Country,TFR,Population,,,
Aruba,1.8,105670,,,
Afghanistan,4.635,36373176,,,
Angola,5.694,30774205,,,
Albania,1.713,2934363,,,Source: https://data.worldbank.org/indicator/SP.DYN.TFRT.IN
United Arab Emirates,1.748,9541615,,,
Argentina,2.293,44688864,,,
Armenia,1.612,2934152,,,
Antigua and Barbuda,2.051,103050,,,
Australia,1.809,24772247,,,
Austria,1.49,8751820,,,
Azerbaijan,1.94,9923914,,,
Burundi,5.697,11216450,,,
Belgium,1.7,11498519,,,
Benin,4.977,11485674,,,
Burkina Faso,5.353,19751651,,,
Bangladesh,2.104,166368149,,,
Bulgaria,1.53,7036848,,,
Bahrain,2.033,1566993,,,
Germany,1.5,82293457,,,
Belarus,1.733,9452113,,,
Belize,2.51,382444,,,
Bermuda,1.61,61070,,,
Bolivia,2.878,11215674,,,
Botswana,2.73,2333201,,,
Canada,1.6,36953765,,,
France,1.96,65233271,,,
Japan,1.44,127185332,,,
Kazakhstan,2.73,18403860,,,
Malaysia,2.037,32042458,,,
