Country,Average CO2 Emissions,Number of registered vehicles
Afghanistan,372.22,655357
 AntiguaandBarbuda,10.86,29989
 Argentina,170.67,23120241
 Australia,0.27,17180596
 Barbados,12.93,112118
 Burundi,1.08,21589
 China,3.99,250138212
 CostaRica,1.6,1759341
 DominicanRepublic,7.21,3215773
 Grenada,6.01,5765
 Guatemala,2.77,2562925
 Guinea-Bissau,2.58,62239
 Honduras,2.46,1378050
 Jamaica,4.52,518239
 Madagascar,48,219576
 Maldives,555.89,61412
 Mauritius,3.46,443495
 Niger,1.59,315600
 Panama,0.26,1004669
 SaintLucia,0.37,1569
 Senegal,30,401910
 Seychelles,10.76,18606
 Sudan,18.56,320974
 Tanzania,9.44,1509786
 Tunisia,6.06,1735339
 Uganda,18,1228425
Zambia,7.2,534532
